KDX Competition Guideline - Data Science | DSChloe
…
glimpse(cat_rev)

## Rows: 192
## Columns: 3
## Groups: 카테고리명 [64]
## $ 카테고리명 <chr> "도서/음반/DVD", "서비스/티켓", "신발", "PC/사무기기", "문구/사무용품", "가공식품", "여성의…
## $ 고객성별   <chr> "없음", "없음", "없음", "없음", "없음", "없음", "없음", "F", "없음", "F", "없음"…
## $ mean       <dbl> 376868009, 308278103, 243189502, 212857790, 174581259, 143…

cat_rev <- cat_rev[order(cat_rev$mean, decreasing = TRUE), ]  # sort
cat_rev

## # A tibble: 192 x 3
## # Groups:   카테고리명 [64]
##    카테고리명    고객성별       mean
##    <chr>         <chr>         <dbl>
##  1 도서/음반/DVD 없음     376868009.
##  2 서비스/티켓   없음     308278103.
##  3 신발          없음     243189502.
##  4 PC/사무기기   없음     212857790.
##  5 문구/사무용품 없음     174581259.
##  6 가공식품      없음     143698037.
##  7 여성의류      없음     117868620.
##  8 여성의류      F        100027424.
##  9 공구류        없음      96215460.
## 10 도서/음반/DVD F         90766413.
## # … with 182 more rows

위 데이터를 보면 알겠지만, 없음이 데이터의 비율이 높게 형성된 것을 확인할 수 있다.

이는 마케팅 기획에 있어서 적합하지 않을 뿐 아니라 데이터의 상대적으로 적기 때문에 제거한다.

cat_rev2 <- cat_rev %>% 
  filter(고객성별 != "없음")
cat_rev2

## # A tibble: 128 x 3
## # Groups:   카테고리명 [64]
##    카테고리명     고객성별       mean
##    <chr>          <chr>         <dbl>
##  1 여성의류       F        100027424.
##  2 도서/음반/DVD  F         90766413.
##  3 서비스/티켓    F         82775484.
##  4 서비스/티켓    M         75524898.
##  5 도서/음반/DVD  M         68399900.
##  6 가공식품       F         58375598.
##  7 신발           F         55024533.
##  8 신발           M         43104913.
##  9 메이크업 용품  F         38278015.
## 10 가방/지갑/잡화 F         38144345.
## # … with 118 more rows
…
