Classification with Tidymodels - Data Science | DSChloe
…
## i 8 of 8 tuning:     Recipe2_XGBoost

## i Creating pre-processing data to finalize unknown parameter: mtry

## ✓ 8 of 8 tuning:     Recipe2_XGBoost (43.8s)

모델학습 비교

이제 모형 학습이 완료가 되었다면, 시각화로 어떤 모델이 좋은지를 확인해보도록 한다.

우선 학습된 데이터를 확인해보도록 한다.

collect_metrics(all_workflows)

## # A tibble: 160 × 9
##    wflow_id     .config    preproc model  .metric .estimator  mean     n std_err
##    <chr>        <chr>      <chr>   <chr>  <chr>   <chr>      <dbl> <int>   <dbl>
##  1 Recipe1_Ran… Preproces… recipe  rand_… accura… binary     0.773    25 0.00383
##  2 Recipe1_Ran… Preproces… recipe  rand_… roc_auc binary     0.746    25 0.00623
##  3 Recipe1_Ran… Preproces… recipe  rand_… accura… binary     0.771    25 0.00419
##  4 Recipe1_Ran… Preproces… recipe  rand_… roc_auc binary     0.748    25 0.00645
##  5 Recipe1_Ran… Preproces… recipe  rand_… accura… binary     0.760    25 0.00379
##  6 Recipe1_Ran… Preproces… recipe  rand_… roc_auc binary     0.743    25 0.00629
##  7 Recipe1_Ran… Preproces… recipe  rand_… accura… binary     0.798    25 0.00314
##  8 Recipe1_Ran… Preproces… recipe  rand_… roc_auc binary     0.738    25 0.00589
##  9 Recipe1_Ran… Preproces… recipe  rand_… accura… binary     0.771    25 0.00406
## 10 Recipe1_Ran… Preproces… recipe  rand_… roc_auc binary     0.742    25 0.00598
## # … with 150 more rows
…
